[
    {
        "age": 1, 
        "carrier": "", 
        "id": "p", 
        "imageUrl": "img/products/p1.jpg", 
        "name": "p", 
        "snippet": "P"
    }, 
    {
        "age": 2, 
        "carrier": "", 
        "id": "b", 
        "imageUrl": "img/products/b1.jpg", 
        "name": "b", 
        "snippet": "B"
    },
    {
        "age": 3, 
        "carrier": "", 
        "id": "m", 
        "imageUrl": "img/products/m1.jpg", 
        "name": "m", 
        "snippet": "M"
    }
]
